dump2.vcd
$date
	Wed May  1 15:46:13 2024
$end
$version
	Icarus Verilog
$end
$timescale
	1ps
$end
$scope module tsc_tb2 $end
$var wire 32 ! trigtm [31:0] $end
$var wire 1 " trd $end
$var wire 1 # sd $end
$var wire 1 $ req $end
$var wire 1 % cd $end
$var wire 1 & adc_rdy $end
$var wire 8 ' adc_data [7:0] $end
$var reg 1 ( clk $end
$var reg 1 ) reset $end
$var reg 1 * sbf $end
$var reg 1 + start $end
$var integer 32 , i [31:0] $end
$scope module adc_inst $end
$var wire 1 ) rst $end
$var wire 1 $ req $end
$var reg 8 - dat [7:0] $end
$var reg 1 & rdy $end
$var integer 32 . idx [31:0] $end
$upscope $end
$scope module tsc_inst $end
$var wire 8 / adc_data [7:0] $end
$var wire 1 & adc_rdy $end
$var wire 1 ( clk $end
$var wire 1 ) reset $end
$var wire 1 * sbf $end
$var wire 1 + start $end
$var reg 4 0 bit_count [3:0] $end
$var reg 5 1 byte_count [4:0] $end
$var reg 1 % cd $end
$var reg 5 2 head [4:0] $end
$var reg 5 3 post_count [4:0] $end
$var reg 1 $ req $end
$var reg 1 # sd $end
$var reg 4 4 state [3:0] $end
$var reg 5 5 tail [4:0] $end
$var reg 32 6 timer [31:0] $end
$var reg 1 " trd $end
$var reg 32 7 trigtm [31:0] $end
$var reg 8 8 trigvl [7:0] $end
$scope begin $unm_blk_1 $end
$var integer 32 9 i [31:0] $end
$upscope $end
$upscope $end
$upscope $end
$enddefinitions $end
#0
$dumpvars
b100000 9
b11010000 8
bx 7
b0 6
b0 5
b0 4
b0 3
b0 2
b11111 1
b1000 0
b0 /
b0 .
b0 -
bx ,
x+
x*
1)
0(
b0 '
0&
x%
x$
x#
x"
bx !
$end
#5000
1&
b1 .
b10000000 '
b10000000 -
b10000000 /
b1 4
1$
0%
0"
1*
1+
0)
1(
#10000
b0 ,
0+
0(
#15000
b10 .
b10001100 '
b10001100 -
b10001100 /
1$
b1 5
b1 6
1(
#20000
0(
b1 ,
#25000
b11 .
b10011000 '
b10011000 -
b10011000 /
1$
b10 5
b10 6
1(
#30000
0(
b10 ,
#35000
b100 .
b10100100 '
b10100100 -
b10100100 /
1$
b11 5
b11 6
1(
#40000
0(
b11 ,
#45000
b101 .
b10110000 '
b10110000 -
b10110000 /
1$
b100 5
b100 6
1(
#50000
0(
b100 ,
#55000
b110 .
b10111011 '
b10111011 -
b10111011 /
1$
b101 5
b101 6
1(
#60000
0(
b101 ,
#65000
b111 .
b11000110 '
b11000110 -
b11000110 /
1$
b110 5
b110 6
1(
#70000
0(
b110 ,
#75000
b1000 .
b11010000 '
b11010000 -
b11010000 /
1$
b111 5
b111 6
1(
#80000
0(
b111 ,
#85000
b1001 .
b11011001 '
b11011001 -
b11011001 /
1$
b1000 5
b1000 6
1(
#90000
0(
b1000 ,
#95000
b1010 .
b11100001 '
b11100001 -
b11100001 /
1$
b10 4
b10000 3
b1001 !
b1001 7
b1001 5
b1001 6
1(
#100000
0(
b1001 ,
#105000
b1011 .
b11101000 '
b11101000 -
b11101000 /
1$
b1111 3
b1010 5
b1010 6
1(
#110000
0(
b1010 ,
#115000
b1100 .
b11101110 '
b11101110 -
b11101110 /
1$
b1110 3
b1011 5
b1011 6
1(
#120000
0(
b1011 ,
#125000
b1101 .
b11110011 '
b11110011 -
b11110011 /
1$
b1101 3
b1100 5
b1100 6
1(
#130000
0(
b1100 ,
#135000
b1110 .
b11110111 '
b11110111 -
b11110111 /
1$
b1100 3
b1101 5
b1101 6
1(
#140000
0(
b1101 ,
#145000
b1111 .
b11111010 '
b11111010 -
b11111010 /
1$
b1011 3
b1110 5
b1110 6
1(
#150000
0(
b1110 ,
#155000
b0 .
b11111011 '
b11111011 -
b11111011 /
1$
b1010 3
b1111 5
b1111 6
1(
#160000
0(
b1111 ,
#165000
b1 .
b10000000 '
b10000000 -
b10000000 /
1$
b1001 3
b10000 5
b10000 6
1(
#170000
0(
b10000 ,
#175000
b10 .
b10001100 '
b10001100 -
b10001100 /
1$
b1000 3
b10001 5
b10001 6
1(
#180000
0(
b10001 ,
#185000
b11 .
b10011000 '
b10011000 -
b10011000 /
1$
b111 3
b10010 5
b10010 6
1(
#190000
0(
b10010 ,
#195000
b100 .
b10100100 '
b10100100 -
b10100100 /
1$
b110 3
b10011 5
b10011 6
1(
#200000
0(
b10011 ,
#205000
b101 .
b10110000 '
b10110000 -
b10110000 /
1$
b101 3
b10100 5
b10100 6
1(
#210000
0(
b10100 ,
#215000
b110 .
b10111011 '
b10111011 -
b10111011 /
1$
b100 3
b10101 5
b10101 6
1(
#220000
0(
b10101 ,
#225000
b111 .
b11000110 '
b11000110 -
b11000110 /
1$
b11 3
b10110 5
b10110 6
1(
#230000
0(
b10110 ,
#235000
b1000 .
b11010000 '
b11010000 -
b11010000 /
1$
b10 3
b10111 5
b10111 6
1(
#240000
0(
b10111 ,
#245000
b1001 .
b11011001 '
b11011001 -
b11011001 /
1$
b1 3
b11000 5
b11000 6
1(
#250000
0(
b11000 ,
#255000
b1010 .
b11100001 '
b11100001 -
b11100001 /
1$
b0 3
b11001 5
b11001 6
1(
#260000
0(
b11001 ,
#265000
b0 4
1"
b11010 6
1(
#270000
0(
b11010 ,
#275000
b11 4
1(
#280000
0(
b11011 ,
#285000
b100 4
1#
1(
#290000
0(
b11100 ,
#295000
1(
#300000
b101 4
b111 0
0#
0(
b11101 ,
#305000
1(
#310000
b110 0
1#
0(
b11110 ,
#315000
1(
#320000
b101 0
0#
0(
b11111 ,
#325000
1(
#330000
b100 0
0(
b100000 ,
#335000
1(
#340000
b11 0
0(
b100001 ,
#345000
1(
#350000
b10 0
0(
b100010 ,
#355000
1(
#360000
b1 0
0(
b100011 ,
#365000
1(
#370000
b0 0
0(
b100100 ,
#375000
1(
#380000
b100 4
b1000 0
b1 2
b11110 1
0(
b100101 ,
#385000
1(
#390000
b101 4
b111 0
0(
b100110 ,
#395000
1(
#400000
b110 0
1#
0(
b100111 ,
#405000
1(
#410000
b101 0
0#
0(
b101000 ,
#415000
1(
#420000
b100 0
0(
b101001 ,
#425000
1(
#430000
b11 0
b101010 ,
x(
#440000
b101011 ,
#450000
b101100 ,
#460000
b101101 ,
#470000
b101110 ,
#480000
b101111 ,
#490000
b110000 ,
#500000
b110001 ,
#510000
b110010 ,
#520000
b110011 ,
#530000
b110100 ,
1(
#535000
b10 0
1#
0(
#540000
1(
b110101 ,
#545000
b1 0
0(
#550000
1(
b110110 ,
#555000
b0 0
0#
0(
#560000
1(
b110111 ,
#565000
b100 4
b1000 0
b10 2
b11101 1
0(
#570000
1(
b111000 ,
#575000
b101 4
b111 0
0(
#580000
1(
b111001 ,
#585000
b110 0
1#
0(
#590000
1(
b111010 ,
#595000
b101 0
0#
0(
#600000
1(
b111011 ,
#605000
b100 0
0(
#610000
1(
b111100 ,
